{
  "0": {
    "title": "دستگاه جوجه کشی بلدرچین",
    "tags": [],
    "fields": [
      {
        "key": "تلفن",
        "value": "۰۹۱۹۵۸۷xxxxکپی"
      },
      {
        "key": "دسته‌بندی",
        "value": "لوازم جانبی"
      },
      {
        "key": "محل",
        "value": "تهران، افسریه"
      },
      {
        "key": "نوع آگهی",
        "value": "فروشی"
      },
      {
        "key": "قیمت",
        "value": "توافقی"
      }
    ]
  },
  "1": {
    "title": "دستکش تکواندو",
    "tags": [],
    "fields": [
      {
        "key": "تلفن",
        "value": "۰۹۳۹۲۸۹xxxxکپی"
      },
      {
        "key": "دسته‌بندی",
        "value": "تجهیزات ورزشی"
      },
      {
        "key": "محل",
        "value": "تهران، نازی‌آباد"
      },
      {
        "key": "نوع آگهی",
        "value": "فروشی"
      },
      {
        "key": "قیمت",
        "value": "۲۵٫۰۰۰ تومان"
      }
    ]
  },
  "2": {
    "title": "عروس هلندی اواز خوان دستی",
    "tags": [],
    "fields": [
      {
        "key": "تلفن",
        "value": "۰۹۳۳۸۳۸xxxxکپی"
      },
      {
        "key": "دسته‌بندی",
        "value": "پرنده"
      },
      {
        "key": "محل",
        "value": "تهران، پردیس"
      },
      {
        "key": "نوع آگهی",
        "value": "فروشی"
      },
      {
        "key": "قیمت",
        "value": "۵۶۰٫۰۰۰ تومان"
      }
    ]
  },
  "3": {
    "title": "فروش کبک",
    "tags": [],
    "fields": [
      {
        "key": "تلفن",
        "value": "۰۹۱۲۳۸۴xxxxکپی"
      },
      {
        "key": "دسته‌بندی",
        "value": "پرنده"
      },
      {
        "key": "محل",
        "value": "تهران، شوش"
      },
      {
        "key": "نوع آگهی",
        "value": "فروشی"
      },
      {
        "key": "قیمت",
        "value": "۱۰۰٫۰۰۰ تومان"
      }
    ]
  },
  "4": {
    "title": "کتاب و جزوه آموزشی به همراه فیلم آموزشی",
    "tags": [],
    "fields": [
      {
        "key": "تلفن",
        "value": "۰۹۳۷۱۴۶xxxxکپی"
      },
      {
        "key": "دسته‌بندی",
        "value": "آموزشی"
      },
      {
        "key": "محل",
        "value": "تهران، شهرک نفت (منطقه ۵)"
      },
      {
        "key": "نوع آگهی",
        "value": "فروشی"
      },
      {
        "key": "قیمت",
        "value": "۲۵۰٫۰۰۰ تومان"
      }
    ]
  },
  "5": {
    "title": "مرغ عشق",
    "tags": [],
    "fields": [
      {
        "key": "تلفن",
        "value": "۰۹۱۹۸۲۲xxxxکپی"
      },
      {
        "key": "دسته‌بندی",
        "value": "پرنده"
      },
      {
        "key": "محل",
        "value": "تهران، شمشیری"
      },
      {
        "key": "نوع آگهی",
        "value": "فروشی"
      },
      {
        "key": "قیمت",
        "value": "۴۰٫۰۰۰ تومان"
      }
    ]
  },
  "6": {
    "title": "دوتا مرغ و یه خروس نژاد دار با هم",
    "tags": [],
    "fields": [
      {
        "key": "تلفن",
        "value": "۰۹۰۳۶۳۶xxxxکپی"
      },
      {
        "key": "دسته‌بندی",
        "value": "حیوانات مزرعه"
      },
      {
        "key": "محل",
        "value": "تهران، رباط کریم"
      },
      {
        "key": "نوع آگهی",
        "value": "فروشی"
      },
      {
        "key": "قیمت",
        "value": "۲۵۰٫۰۰۰ تومان"
      }
    ]
  },
  "7": {
    "title": "دستگاه جوجه کشی شترمرغ",
    "tags": [],
    "fields": [
      {
        "key": "تلفن",
        "value": "۰۹۱۹۵۸۷xxxxکپی"
      },
      {
        "key": "دسته‌بندی",
        "value": "لوازم جانبی"
      },
      {
        "key": "محل",
        "value": "تهران، افسریه"
      },
      {
        "key": "نوع آگهی",
        "value": "فروشی"
      },
      {
        "key": "قیمت",
        "value": "توافقی"
      }
    ]
  },
  "8": {
    "title": "یاماها سی ۴۰ ‌(yamaha c40)",
    "tags": [],
    "fields": [
      {
        "key": "تلفن",
        "value": "۰۹۳۵۲۹۴xxxxکپی"
      },
      {
        "key": "دسته‌بندی",
        "value": "گیتار، بیس و امپلیفایر"
      },
      {
        "key": "محل",
        "value": "تهران، اقدسیه"
      },
      {
        "key": "نوع آگهی",
        "value": "فروشی"
      },
      {
        "key": "قیمت",
        "value": "۱٫۲۰۰٫۰۰۰ تومان"
      }
    ]
  },
  "9": {
    "title": "پکیج آموزشی رشته تجربی برای‌کنکور‌۹۸",
    "tags": [],
    "fields": [
      {
        "key": "تلفن",
        "value": "(پنهان‌شده؛ چت کنید)"
      },
      {
        "key": "دسته‌بندی",
        "value": "آموزشی"
      },
      {
        "key": "محل",
        "value": "تهران، آذربایجان"
      },
      {
        "key": "نوع آگهی",
        "value": "فروشی"
      },
      {
        "key": "قیمت",
        "value": "۵۰۰٫۰۰۰ تومان"
      }
    ]
  }
}