{
  "0": {
    "title": "چکمه پاشنه دار سایز ۳۸",
    "tags": [],
    "fields": [
      {
        "key": "تلفن",
        "value": "۰۹۳۳۵۳۲xxxxکپی"
      },
      {
        "key": "دسته‌بندی",
        "value": "کیف/کفش/کمربند"
      },
      {
        "key": "محل",
        "value": "تهران، باغ فیض"
      },
      {
        "key": "وضعیت",
        "value": "در حد نو"
      },
      {
        "key": "نوع کالا",
        "value": "کفش"
      },
      {
        "key": "زنانه/مردانه",
        "value": "زنانه"
      },
      {
        "key": "تولیدکننده",
        "value": "ایرانی"
      },
      {
        "key": "قیمت",
        "value": "۱۲۰٫۰۰۰ تومان"
      }
    ]
  },
  "1": {
    "title": "کتونیzxاکومنت لیمویی ادیداس اورجینال",
    "tags": [],
    "fields": [
      {
        "key": "تلفن",
        "value": "۰۹۱۹۰۱۳xxxxکپی"
      },
      {
        "key": "دسته‌بندی",
        "value": "کیف/کفش/کمربند"
      },
      {
        "key": "محل",
        "value": "تهران، شهرک کیانشهر"
      },
      {
        "key": "وضعیت",
        "value": "دست‌دوم"
      },
      {
        "key": "نوع کالا",
        "value": "کفش"
      },
      {
        "key": "نوع کفش",
        "value": "کتانی"
      },
      {
        "key": "زنانه/مردانه",
        "value": "مردانه"
      },
      {
        "key": "تولیدکننده",
        "value": "خارجی"
      },
      {
        "key": "قیمت",
        "value": "توافقی"
      }
    ]
  },
  "2": {
    "title": "لباس نامزدی دانتل دوزی شده سایز ۳۸.۴۰ دنباله دار",
    "tags": [],
    "fields": [
      {
        "key": "تلفن",
        "value": "(پنهان‌شده؛ چت کنید)"
      },
      {
        "key": "دسته‌بندی",
        "value": "لباس"
      },
      {
        "key": "محل",
        "value": "تهران، تهران‌سر"
      },
      {
        "key": "وضعیت",
        "value": "در حد نو"
      },
      {
        "key": "نوع لباس",
        "value": "لباس عروس"
      },
      {
        "key": "زنانه/مردانه",
        "value": "زنانه"
      },
      {
        "key": "تولیدکننده",
        "value": "ایرانی"
      },
      {
        "key": "قیمت",
        "value": "۳٫۵۰۰٫۰۰۰ تومان"
      }
    ]
  },
  "3": {
    "title": "زانوبند طبی درحدآک  یک جفت",
    "tags": [],
    "fields": [
      {
        "key": "تلفن",
        "value": "(پنهان‌شده؛ چت کنید)"
      },
      {
        "key": "دسته‌بندی",
        "value": "آرایشی، بهداشتی و درمانی"
      },
      {
        "key": "محل",
        "value": "تهران، فلاح"
      },
      {
        "key": "وضعیت",
        "value": "در حد نو"
      },
      {
        "key": "نوع کالا",
        "value": "لوازم طبی و درمانی"
      },
      {
        "key": "قیمت",
        "value": "۴۵۰٫۰۰۰ تومان"
      }
    ]
  },
  "4": {
    "title": "کتونی اورجینال آدیداس ۴۱ بزرگ",
    "tags": [],
    "fields": [
      {
        "key": "تلفن",
        "value": "۰۹۳۶۹۶۱xxxxکپی"
      },
      {
        "key": "دسته‌بندی",
        "value": "کیف/کفش/کمربند"
      },
      {
        "key": "محل",
        "value": "تهران، سیدخندان"
      },
      {
        "key": "نوع کالا",
        "value": "کفش"
      },
      {
        "key": "نوع کفش",
        "value": "کتانی"
      },
      {
        "key": "زنانه/مردانه",
        "value": "زنانه و مردانه"
      },
      {
        "key": "تولیدکننده",
        "value": "خارجی"
      },
      {
        "key": "قیمت",
        "value": "۱۶۵٫۰۰۰ تومان"
      }
    ]
  },
  "5": {
    "title": "پوشک بچه( فرانسوی)",
    "tags": [],
    "fields": [
      {
        "key": "تلفن",
        "value": "(پنهان‌شده؛ چت کنید)"
      },
      {
        "key": "دسته‌بندی",
        "value": "اسباب و اثاث بچه"
      },
      {
        "key": "محل",
        "value": "تهران، اسکندری"
      },
      {
        "key": "قیمت",
        "value": "۵۳۰٫۰۰۰ تومان"
      }
    ]
  },
  "6": {
    "title": "پالتو سایز ۴۲و۴۴",
    "tags": [],
    "fields": [
      {
        "key": "تلفن",
        "value": "(پنهان‌شده؛ چت کنید)"
      },
      {
        "key": "دسته‌بندی",
        "value": "لباس"
      },
      {
        "key": "محل",
        "value": "تهران، تهرانپارس شرقی"
      },
      {
        "key": "وضعیت",
        "value": "در حد نو"
      },
      {
        "key": "نوع لباس",
        "value": "کاپشن، پالتو، بارانی"
      },
      {
        "key": "زنانه/مردانه",
        "value": "زنانه"
      },
      {
        "key": "تولیدکننده",
        "value": "ایرانی"
      },
      {
        "key": "قیمت",
        "value": "۵۵٫۰۰۰ تومان"
      }
    ]
  },
  "7": {
    "title": "چکمه ساق بلند تا بالای زانو سایز ۳۷",
    "tags": [],
    "fields": [
      {
        "key": "تلفن",
        "value": "۰۹۳۳۵۳۲xxxxکپی"
      },
      {
        "key": "دسته‌بندی",
        "value": "کیف/کفش/کمربند"
      },
      {
        "key": "محل",
        "value": "تهران، باغ فیض"
      },
      {
        "key": "وضعیت",
        "value": "نو"
      },
      {
        "key": "نوع کالا",
        "value": "کفش"
      },
      {
        "key": "نوع کفش",
        "value": "بوت"
      },
      {
        "key": "زنانه/مردانه",
        "value": "زنانه"
      },
      {
        "key": "تولیدکننده",
        "value": "ایرانی"
      },
      {
        "key": "قیمت",
        "value": "۱۰۰٫۰۰۰ تومان"
      }
    ]
  },
  "8": {
    "title": "عروسکهای زیبای قدیمی",
    "tags": [],
    "fields": [
      {
        "key": "تلفن",
        "value": "(پنهان‌شده؛ چت کنید)"
      },
      {
        "key": "دسته‌بندی",
        "value": "اسباب بازی"
      },
      {
        "key": "محل",
        "value": "تهران، تجریش"
      },
      {
        "key": "قیمت",
        "value": "توافقی"
      }
    ]
  },
  "9": {
    "title": "لباس مجلسی سایز ۳۶",
    "tags": [],
    "fields": [
      {
        "key": "تلفن",
        "value": "(پنهان‌شده؛ چت کنید)"
      },
      {
        "key": "دسته‌بندی",
        "value": "لباس"
      },
      {
        "key": "محل",
        "value": "تهران، آرژانتین"
      },
      {
        "key": "وضعیت",
        "value": "در حد نو"
      },
      {
        "key": "نوع لباس",
        "value": "لباس مجلسی"
      },
      {
        "key": "زنانه/مردانه",
        "value": "زنانه"
      },
      {
        "key": "تولیدکننده",
        "value": "خارجی"
      },
      {
        "key": "قیمت",
        "value": "۳۰۰٫۰۰۰ تومان"
      }
    ]
  }
}