{
  "0": {
    "title": "آبسردکن. آب سردکن",
    "tags": [],
    "fields": [
      {
        "key": "تلفن",
        "value": "۰۹۱۹۸۶۳xxxxکپی"
      },
      {
        "key": "دسته‌بندی",
        "value": "دفتر کار"
      },
      {
        "key": "محل",
        "value": "تهران، مسگرآباد"
      },
      {
        "key": "نوع آگهی",
        "value": "فروشی"
      },
      {
        "key": "قیمت",
        "value": "۲٫۹۰۰٫۰۰۰ تومان"
      }
    ]
  },
  "1": {
    "title": "4عدد مانکن زن و مرد",
    "tags": [],
    "fields": [
      {
        "key": "تلفن",
        "value": "۰۹۳۶۵۰۵xxxxکپی"
      },
      {
        "key": "دسته‌بندی",
        "value": "فروشگاه و مغازه"
      },
      {
        "key": "محل",
        "value": "تهران، گیشا (کوی نصر)"
      },
      {
        "key": "نوع آگهی",
        "value": "فروشی"
      },
      {
        "key": "قیمت",
        "value": "۷۰۰٫۰۰۰ تومان"
      }
    ]
  },
  "2": {
    "title": "دستگاه pvc نوین چوب کارگاهی",
    "tags": [],
    "fields": [
      {
        "key": "تلفن",
        "value": "۰۹۱۲۰۹۲xxxxکپی"
      },
      {
        "key": "دسته‌بندی",
        "value": "صنعتی"
      },
      {
        "key": "محل",
        "value": "تهران، تهرانپارس شرقی"
      },
      {
        "key": "نوع آگهی",
        "value": "فروشی"
      },
      {
        "key": "قیمت",
        "value": "۳۲٫۰۰۰٫۰۰۰ تومان"
      }
    ]
  },
  "3": {
    "title": "خریدارچرخ خیاطی صنعتی خانگی همه رقم لوازم کارگاه",
    "tags": [
      "فوری"
    ],
    "fields": [
      {
        "key": "تلفن",
        "value": "۰۹۳۵۴۳۹xxxxکپی"
      },
      {
        "key": "دسته‌بندی",
        "value": "صنعتی"
      },
      {
        "key": "محل",
        "value": "تهران، شهر ری - هاشم‌آباد"
      },
      {
        "key": "نوع آگهی",
        "value": "فروشی"
      },
      {
        "key": "قیمت",
        "value": "۱٫۰۰۰٫۰۰۰٫۰۰۰ تومان"
      }
    ]
  },
  "4": {
    "title": "دریل برند بوش",
    "tags": [
      "فوری"
    ],
    "fields": [
      {
        "key": "تلفن",
        "value": "۰۹۱۲۶۴۴xxxxکپی"
      },
      {
        "key": "دسته‌بندی",
        "value": "صنعتی"
      },
      {
        "key": "محل",
        "value": "تهران، میدان ولیعصر"
      },
      {
        "key": "نوع آگهی",
        "value": "فروشی"
      },
      {
        "key": "قیمت",
        "value": "۷۰۰٫۰۰۰ تومان"
      }
    ]
  },
  "5": {
    "title": "چرخ بطر دوسوزنه",
    "tags": [],
    "fields": [
      {
        "key": "تلفن",
        "value": "۰۹۳۸۹۳۰xxxxکپی"
      },
      {
        "key": "دسته‌بندی",
        "value": "صنعتی"
      },
      {
        "key": "محل",
        "value": "تهران، وصفنارد"
      },
      {
        "key": "نوع آگهی",
        "value": "فروشی"
      },
      {
        "key": "قیمت",
        "value": "توافقی"
      }
    ]
  },
  "6": {
    "title": "دیس استیل قنادی و نان فانتزی مارک نگار",
    "tags": [],
    "fields": [
      {
        "key": "تلفن",
        "value": "۰۹۱۰۰۴۴xxxxکپی"
      },
      {
        "key": "دسته‌بندی",
        "value": "فروشگاه و مغازه"
      },
      {
        "key": "محل",
        "value": "تهران، یافت‌آباد"
      },
      {
        "key": "نوع آگهی",
        "value": "فروشی"
      },
      {
        "key": "قیمت",
        "value": "توافقی"
      }
    ]
  },
  "7": {
    "title": "دیس سیاه و سفید قنادی کیک و کلوچه پزی",
    "tags": [],
    "fields": [
      {
        "key": "تلفن",
        "value": "۰۹۱۰۰۴۴xxxxکپی"
      },
      {
        "key": "دسته‌بندی",
        "value": "فروشگاه و مغازه"
      },
      {
        "key": "محل",
        "value": "تهران، یافت‌آباد"
      },
      {
        "key": "نوع آگهی",
        "value": "فروشی"
      },
      {
        "key": "قیمت",
        "value": "توافقی"
      }
    ]
  },
  "8": {
    "title": "پخش عمده بادکنک",
    "tags": [],
    "fields": [
      {
        "key": "تلفن",
        "value": "۰۹۳۷۶۸۷xxxxکپی"
      },
      {
        "key": "دسته‌بندی",
        "value": "عمده فروشی"
      },
      {
        "key": "محل",
        "value": "تهران، بازار"
      },
      {
        "key": "نوع آگهی",
        "value": "فروشی"
      },
      {
        "key": "قیمت",
        "value": "توافقی"
      }
    ]
  },
  "9": {
    "title": "۲ عددهفت چرخ قنادی",
    "tags": [],
    "fields": [
      {
        "key": "تلفن",
        "value": "۰۹۲۱۶۳۷xxxxکپی"
      },
      {
        "key": "دسته‌بندی",
        "value": "فروشگاه و مغازه"
      },
      {
        "key": "محل",
        "value": "تهران، آذری"
      },
      {
        "key": "نوع آگهی",
        "value": "فروشی"
      },
      {
        "key": "قیمت",
        "value": "۱۵۰٫۰۰۰ تومان"
      }
    ]
  }
}